…
**Example**

```julia
using Rasters, RasterDataSources, ArchGDAL, DataFrames, Statistics, Dates, NaturalEarth
# Download borders
countries = naturalearth("admin_0_countries", 10) |> DataFrame
# Download and read a raster stack from WorldClim
st = RasterStack(WorldClim{Climate}; month=Jan)
# Calculate the january mean of all climate variables for all countries
january_stats = zonal(mean, st; of=countries, boundary=:touches, progress=false) |> DataFrame
# Add the country name column (natural earth has some string errors it seems)
insertcols!(january_stats, 1, :country => first.(split.(countries.ADMIN, r"[^A-Za-z ]")))
# output
258×8 DataFrame
 Row │ country                       tmin       tmax       tavg       prec     ⋯
     │ SubStrin…                     Float32    Float32    Float32    Float64  ⋯
─────┼──────────────────────────────────────────────────────────────────────────
   1 │ Indonesia                      21.5447    29.1865    25.3656   271.063  ⋯
   2 │ Malaysia                       21.3087    28.4291    24.8688   273.381
   3 │ Chile                           7.24534   17.9262    12.5858    78.1287
   4 │ Bolivia                        17.2065    27.7454    22.4758   192.542
   5 │ Peru                           15.0273    25.5504    20.2889   180.007  ⋯
   6 │ Argentina                      13.6751    27.6716    20.6732    67.1837
   7 │ Dhekelia Sovereign Base Area    5.87126   15.8991    10.8868    76.25
   8 │ Cyprus                          5.65921   14.6665    10.1622    97.4474
  ⋮  │              ⋮                    ⋮          ⋮          ⋮         ⋮     ⋱
 252 │ Spratly Islands                25.0       29.2       27.05      70.5    ⋯
 253 │ Clipperton Island              21.5       33.2727    27.4        6.0
 254 │ Macao S                        11.6694    17.7288    14.6988    28.0
 255 │ Ashmore and Cartier Islands   NaN        NaN        NaN        NaN
 256 │ Bajo Nuevo Bank               NaN        NaN        NaN        NaN      ⋯
 257 │ Serranilla Bank               NaN        NaN        NaN        NaN
 258 │ Scarborough Reef              NaN        NaN        NaN        NaN
                                                  3 columns and 243 rows omitted
```
…
